<?xml version="1.0" standalone="no"?>
<!DOCTYPE svg PUBLIC "-//W3C//DTD SVG 20010904//EN"
 "http://www.w3.org/TR/2001/REC-SVG-20010904/DTD/svg10.dtd">
<svg version="1.0" xmlns="http://www.w3.org/2000/svg"
 width="626.000000pt" height="626.000000pt" viewBox="0 0 626.000000 626.000000"
 preserveAspectRatio="xMidYMid meet">

<g transform="translate(0.000000,626.000000) scale(0.100000,-0.100000)"
fill="#000000" stroke="none">
<path d="M4315 4270 c-15 -16 -17 -37 -17 -137 1 -108 3 -119 23 -135 12 -11
38 -18 60 -18 l40 0 -41 -55 c-22 -30 -40 -57 -40 -60 0 -4 33 21 74 54 l74
61 159 0 c212 0 203 -7 203 155 0 117 -1 125 -22 139 -19 13 -61 16 -259 16
-222 0 -237 -1 -254 -20z m132 -126 c8 -21 -13 -42 -28 -27 -13 13 -5 43 11
43 6 0 13 -7 17 -16z m100 0 c8 -20 -17 -36 -34 -22 -10 8 -10 14 -2 24 15 18
28 18 36 -2z m92 2 c9 -10 8 -16 -4 -26 -19 -16 -41 1 -32 24 8 20 21 20 36 2z
m98 -2 c9 -23 -13 -40 -32 -24 -12 10 -13 16 -4 26 15 18 28 18 36 -2z"/>
<path d="M3855 4072 c-59 -37 -75 -77 -50 -131 16 -37 16 -38 -16 -101 -18
-35 -34 -85 -37 -111 -4 -40 -1 -48 19 -63 24 -17 139 -56 165 -56 17 0 19 29
2 34 -7 2 -32 9 -55 15 -72 20 -89 82 -57 203 20 80 33 100 62 95 26 -5 30 10
5 16 -24 5 26 26 70 30 30 2 32 -1 35 -32 2 -21 0 -31 -7 -26 -6 3 -11 1 -11
-4 0 -6 4 -11 8 -11 4 0 14 -16 21 -35 7 -20 21 -41 31 -47 15 -9 16 -16 8
-31 -5 -11 -8 -32 -6 -48 4 -27 1 -30 -35 -40 -39 -10 -52 -9 -91 6 -14 6 -17
4 -14 -11 3 -15 11 -18 53 -16 94 5 109 15 129 82 17 57 20 60 50 60 18 0 40
-6 49 -12 15 -12 13 -20 -18 -92 -19 -44 -35 -87 -35 -97 0 -23 -15 -32 -41
-24 -14 5 -18 12 -14 25 3 10 3 31 -1 46 -6 25 -8 26 -20 10 -7 -10 -16 -47
-19 -82 -10 -92 -65 -153 -81 -90 -5 21 -10 24 -37 19 -33 -5 -104 7 -312 52
-192 41 -182 35 -225 129 -21 45 -55 131 -75 192 -21 60 -38 110 -39 110 0 1
-23 -5 -50 -13 -56 -16 -55 -7 -12 -165 50 -189 94 -295 138 -334 46 -43 243
-121 351 -140 47 -8 51 -18 66 -144 6 -52 16 -116 22 -142 l10 -47 92 -3 c91
-3 92 -3 92 -28 0 -22 -5 -25 -39 -28 -35 -3 -38 -5 -33 -30 6 -32 -1 -52 -19
-52 -9 0 -14 -12 -14 -35 0 -31 3 -35 25 -35 22 0 25 4 25 35 0 35 0 35 44 35
41 0 45 -2 48 -27 3 -25 7 -28 46 -31 l42 -3 0 35 c0 20 5 36 10 36 6 0 10
-13 10 -30 0 -30 0 -30 58 -30 32 0 62 4 68 10 6 6 22 6 44 0 19 -6 66 -10
104 -10 l69 0 -7 -122 c-9 -144 -36 -313 -63 -383 -16 -43 -23 -50 -48 -53
-17 -2 -49 -10 -71 -18 -50 -19 -109 -21 -281 -10 l-133 9 0 -27 0 -26 360 0
c330 0 360 1 360 17 0 9 -6 24 -14 32 -13 14 -12 23 4 71 35 104 51 205 57
356 l6 151 55 6 c66 7 126 44 153 97 16 28 19 57 19 153 0 136 -13 173 -77
217 -36 24 -41 25 -250 28 l-213 3 0 48 c0 59 -19 84 -75 99 -22 6 -59 16 -82
22 -55 14 -55 34 -3 80 32 28 42 45 49 85 14 78 12 233 -3 269 -16 38 -87 98
-135 115 -55 18 -181 14 -216 -7z m179 -188 c3 -8 2 -12 -4 -9 -6 3 -10 10
-10 16 0 14 7 11 14 -7z m-213 -586 c0 -10 2 -10 6 0 2 6 11 12 19 12 10 0 14
-15 14 -60 l0 -60 -35 0 -35 0 0 60 c0 47 3 60 15 60 8 0 15 -6 16 -12z"/>
<path d="M3856 3904 c-9 -22 -8 -24 9 -24 8 0 15 6 15 14 0 22 -17 28 -24 10z"/>
<path d="M3960 3870 c0 -19 11 -26 23 -14 8 8 -3 34 -14 34 -5 0 -9 -9 -9 -20z"/>
<path d="M2071 3846 c-9 -11 -6 -75 13 -283 21 -221 29 -270 43 -280 11 -9 54
-13 126 -13 l109 0 -7 -62 c-10 -92 -10 -93 -70 -112 -33 -10 -55 -23 -55 -32
0 -12 76 -14 547 -14 337 0 543 4 538 9 -18 17 -202 31 -422 32 -120 0 -254 6
-298 12 l-79 12 2 50 c2 28 5 62 8 78 l6 27 208 0 c178 0 209 2 221 16 19 23
-26 530 -49 557 -14 16 -47 17 -422 17 -340 0 -410 -2 -419 -14z"/>
<path d="M3871 3846 c-7 -8 -8 -17 -3 -20 6 -3 13 1 16 10 9 23 2 28 -13 10z"/>
<path d="M3862 3764 c3 -14 11 -18 33 -16 17 2 35 8 40 14 7 6 0 9 -20 7 -17
-2 -36 0 -43 5 -10 6 -13 3 -10 -10z"/>
<path d="M3974 3644 c-18 -14 -18 -15 4 -4 12 6 22 13 22 15 0 8 -5 6 -26 -11z"/>
<path d="M3656 3227 c-7 -19 -17 -43 -20 -55 -9 -27 -14 -27 -96 -2 -36 11
-72 20 -81 20 -20 0 -99 -77 -99 -95 0 -8 -3 -20 -6 -29 -5 -14 16 -16 195
-16 111 0 201 4 201 8 0 12 -30 36 -62 50 -32 13 -34 27 -13 94 16 56 2 75
-19 25z"/>
<path d="M2350 2885 c0 -23 4 -25 43 -25 50 0 57 4 50 31 -4 15 -14 19 -49 19
-40 0 -44 -2 -44 -25z"/>
<path d="M3778 2903 c-34 -3 -48 -8 -48 -19 0 -10 13 -14 49 -14 42 0 50 -3
56 -22 7 -22 8 -22 12 5 5 32 -2 58 -14 55 -4 -1 -29 -3 -55 -5z"/>
<path d="M1720 2885 c0 -11 12 -15 45 -15 33 0 45 4 45 15 0 11 -12 15 -45 15
-33 0 -45 -4 -45 -15z"/>
<path d="M3040 2769 l0 -130 43 3 42 3 3 128 3 127 -46 0 -45 0 0 -131z"/>
<path d="M2363 2790 c0 -30 2 -43 4 -27 2 15 2 39 0 55 -2 15 -4 2 -4 -28z"/>
<path d="M2443 2765 c0 -33 2 -45 4 -27 2 18 2 45 0 60 -2 15 -4 0 -4 -33z"/>
<path d="M2373 2645 c0 -27 2 -38 4 -22 2 15 2 37 0 50 -2 12 -4 0 -4 -28z"/>
<path d="M2453 2590 c0 -36 2 -50 4 -32 2 17 2 47 0 65 -2 17 -4 3 -4 -33z"/>
<path d="M2382 2525 c0 -16 2 -22 5 -12 2 9 2 23 0 30 -3 6 -5 -1 -5 -18z"/>
<path d="M2463 2425 c0 -38 2 -53 4 -32 2 20 2 52 0 70 -2 17 -4 1 -4 -38z"/>
<path d="M2381 2464 c0 -11 3 -14 6 -6 3 7 2 16 -1 19 -3 4 -6 -2 -5 -13z"/>
<path d="M2393 2370 c0 -30 2 -43 4 -27 2 15 2 39 0 55 -2 15 -4 2 -4 -28z"/>
<path d="M2473 2245 c0 -33 2 -45 4 -27 2 18 2 45 0 60 -2 15 -4 0 -4 -33z"/>
<path d="M3630 2271 c-19 -37 -12 -41 65 -41 l75 0 0 30 0 30 -65 0 c-53 0
-66 -3 -75 -19z"/>
<path d="M2403 2225 c0 -33 2 -45 4 -27 2 18 2 45 0 60 -2 15 -4 0 -4 -33z"/>
<path d="M4020 1972 c0 -141 3 -182 15 -198 11 -15 14 -59 15 -215 0 -219 3
-209 -70 -209 -63 0 -65 -3 -62 -80 l4 -70 289 0 c266 0 313 -4 279 -25 -5 -3
-10 -22 -10 -41 0 -49 45 -94 93 -94 79 0 118 99 62 156 -14 14 -25 36 -25 49
0 13 -10 35 -22 49 -22 23 -34 26 -193 41 -93 9 -180 18 -192 21 -23 4 -23 5
-23 207 1 162 4 206 15 221 12 16 15 56 15 193 l0 173 -95 0 -95 0 0 -178z"/>
<path d="M2413 2090 c0 -30 2 -43 4 -27 2 15 2 39 0 55 -2 15 -4 2 -4 -28z"/>
<path d="M2483 2075 c0 -33 2 -45 4 -27 2 18 2 45 0 60 -2 15 -4 0 -4 -33z"/>
<path d="M5256 2105 c-21 -7 -46 -21 -55 -30 -15 -15 -14 -18 7 -35 12 -10 18
-21 13 -24 -14 -9 -42 -100 -61 -196 l-16 -85 -17 55 c-19 64 -47 95 -97 105
-19 4 -48 18 -63 31 -16 13 -40 24 -54 24 -84 0 -173 -112 -173 -217 0 -37 22
-97 39 -107 15 -10 178 76 229 120 47 39 56 82 25 116 -15 17 -15 18 1 18 30
0 74 -57 85 -111 6 -27 11 -104 11 -169 0 -113 1 -120 20 -120 17 0 20 7 20
43 0 61 26 155 58 206 35 58 47 60 48 10 0 -30 6 -46 22 -59 28 -23 106 -34
182 -25 69 8 74 19 41 91 -32 71 -102 109 -191 102 -34 -2 -45 -7 -45 -20 0
-9 -13 -26 -28 -38 -36 -28 -71 -99 -88 -175 -18 -86 -23 -40 -9 89 13 123 35
225 58 271 l15 30 12 -35 c14 -43 48 -62 101 -57 68 7 185 104 171 141 -3 7
-29 25 -58 40 -61 30 -138 34 -203 11z"/>
<path d="M2423 1945 c0 -27 2 -38 4 -22 2 15 2 37 0 50 -2 12 -4 0 -4 -28z"/>
<path d="M2493 1935 c0 -22 2 -30 4 -17 2 12 2 30 0 40 -3 9 -5 -1 -4 -23z"/>
<path d="M2432 1805 c0 -16 2 -22 5 -12 2 9 2 23 0 30 -3 6 -5 -1 -5 -18z"/>
<path d="M2503 1745 c0 -33 2 -45 4 -27 2 18 2 45 0 60 -2 15 -4 0 -4 -33z"/>
<path d="M2970 1741 c0 -17 4 -32 9 -35 5 -3 7 -15 4 -26 -3 -11 0 -20 6 -20
5 0 8 7 4 16 -5 14 -2 16 20 10 25 -6 27 -4 27 29 0 29 -5 37 -26 45 -38 15
-44 13 -44 -19z"/>
<path d="M2443 1675 c0 -27 2 -38 4 -22 2 15 2 37 0 50 -2 12 -4 0 -4 -28z"/>
<path d="M2513 1575 c0 -33 2 -45 4 -27 2 18 2 45 0 60 -2 15 -4 0 -4 -33z"/>
<path d="M2453 1535 c0 -27 2 -38 4 -22 2 15 2 37 0 50 -2 12 -4 0 -4 -28z"/>
<path d="M2955 1445 c-51 -53 -56 -55 -104 -55 -65 0 -65 -15 -1 -30 65 -16
90 -8 118 36 15 22 29 34 38 30 10 -4 14 2 14 18 0 14 3 31 6 40 12 32 -20 15
-71 -39z"/>
<path d="M2523 1390 c0 -30 2 -43 4 -27 2 15 2 39 0 55 -2 15 -4 2 -4 -28z"/>
<path d="M3598 1433 l-38 -4 15 -30 c9 -16 20 -29 25 -29 4 0 11 -8 13 -17 4
-17 5 -17 6 0 1 12 9 17 29 17 54 0 72 10 72 41 0 28 -2 29 -42 27 -24 -1 -60
-3 -80 -5z"/>
<path d="M2463 1385 c0 -27 2 -38 4 -22 2 15 2 37 0 50 -2 12 -4 0 -4 -28z"/>
<path d="M3001 1394 c0 -11 3 -14 6 -6 3 7 2 16 -1 19 -3 4 -6 -2 -5 -13z"/>
<path d="M2991 1354 c0 -11 3 -14 6 -6 3 7 2 16 -1 19 -3 4 -6 -2 -5 -13z"/>
<path d="M3713 1315 c-3 -9 -3 -32 0 -51 5 -28 0 -44 -22 -77 -16 -23 -36 -55
-45 -70 -17 -28 -39 -41 -89 -52 -15 -3 -25 -10 -22 -15 8 -14 138 -13 168 1
33 15 55 79 39 114 -7 14 -12 28 -12 30 0 3 27 5 61 5 52 0 60 2 55 16 -3 9
-6 38 -6 65 l0 49 -60 0 c-45 0 -62 -4 -67 -15z"/>
<path d="M2473 1255 c0 -27 2 -38 4 -22 2 15 2 37 0 50 -2 12 -4 0 -4 -28z"/>
<path d="M2533 1230 c0 -36 2 -50 4 -32 2 17 2 47 0 65 -2 17 -4 3 -4 -33z"/>
<path d="M3621 1254 c0 -11 3 -14 6 -6 3 7 2 16 -1 19 -3 4 -6 -2 -5 -13z"/>
<path d="M3588 1193 c-22 -25 -31 -59 -22 -85 6 -20 7 -20 17 -3 16 30 37 105
28 105 -4 0 -15 -8 -23 -17z"/>
<path d="M2483 1110 c0 -25 2 -35 4 -22 2 12 2 32 0 45 -2 12 -4 2 -4 -23z"/>
<path d="M2543 1080 c0 -25 2 -35 4 -22 2 12 2 32 0 45 -2 12 -4 2 -4 -23z"/>
</g>
</svg>
